1	0.000003949	0.000004198	0.000004561	0.000005248
2	0.000005799	0.000006749	0.000093815	0.000082603
3	0.000007457	0.000091586	0.000093425	0.000093379
4	0.000012230	0.000091500	0.000148401	0.000105763
5	0.000020393	0.000101797	0.000162664	0.000100592
6	0.000037693	0.000195394	0.000169047	0.000296025
7	0.000080867	0.000195970	0.000277274	0.000357372
8	0.000147248	0.000297446	0.000268975	0.000401742
9	0.000294549	0.000375719	0.000376421	0.000506004
10	0.000597359	0.000674247	0.000677681	0.000697448
11	0.001220295	0.001125204	0.000953268	0.001044523
12	0.002521046	0.001794816	0.001656931	0.001681045
13	0.004996343	0.003465929	0.002893201	0.002816966
14	0.010171921	0.006886898	0.006434122	0.005533912
15	0.020628628	0.013715485	0.013267502	0.010624350
16	0.042419293	0.032979499	0.025503204	0.019687401
17	0.085754959	0.055983871	0.051492440	0.044137253
18	0.176564129	0.114042247	0.107871715	0.088334242
19	0.356154384	0.272534188	0.204620903	0.171565412
20	0.740214450	0.530903583	0.423861587	0.360042172
21	1.494005301	1.111494921	0.845069420	0.722102477
22	3.073092575	2.201060702	1.739612910	1.511784119
23	6.237293438	4.529895231	3.505734702	3.022951035
24	12.729902854	9.180979780	6.968902521	6.128705379
25	26.195367708	18.727783214	14.469106227	12.573870692
26	53.268174714	37.726172374	29.195553169	24.725781628
27	107.575654023	76.817264212	58.075941723	50.135996345
28	219.019784643	154.908937521	122.975398318	102.040803873
