1	0.000166720	0.000217582	0.000305723	0.000338801
2	0.000168207	0.000243525	0.000284421	0.000343540
3	0.000178672	0.000254317	0.000287144	0.000338452
4	0.000179193	0.000275116	0.000305674	0.000368430
5	0.000189911	0.000263997	0.000359094	0.000399946
6	0.000184529	0.000283742	0.000372089	0.000611443
7	0.000189092	0.000218576	0.000448820	0.000532181
8	0.000197833	0.000378202	0.000343736	0.000682484
9	0.000222449	0.000329250	0.000925348	0.001035795
10	0.000275559	0.000437114	0.001270561	0.001677387
11	0.000405176	0.000398076	0.002730514	0.002888918
12	0.000587281	0.000776872	0.001867119	0.002818284
13	0.001064018	0.000922709	0.004443964	0.001969680
14	0.002000590	0.001441183	0.005374951	0.006479309
15	0.003895994	0.003659478	0.008517257	0.014996829
16	0.008069538	0.007456453	0.005942636	0.009561405
17	0.016995100	0.010490689	0.012157147	0.024795484
18	0.035933858	0.021183534	0.025484537	0.045332419
19	0.075010760	0.043890669	0.038735970	0.065242017
20	0.153777827	0.090996329	0.100905531	0.129336857
21	0.327944207	0.181906369	0.207848822	0.171125756
22	0.683838194	0.378712728	0.351547085	0.417237496
23	1.424999786	0.801984485	0.740428456	0.890630852
24	2.994386287	1.623652079	1.499299731	1.601846768
25	6.217716142	3.406900522	3.144253783	2.913669025
26	12.929434095	7.169533256	6.543229656	6.159368019
27	26.519280160	14.905984569	13.841819708	13.543839515
28	54.383231796	31.696275193	28.952886007	28.010783692
