set xlabel "2 to the power of n integers to be sorted"
set ylabel "Scalability in relation to parallel algorithm executed with 1 thread"
set xr [0:30]
set yr [0:2.5]

plot \
     "sort_par_mcstl_std_parallel_quicksort_balanced_scalability.data" u ($2/$3) t 'MCSTL quicksort balanced with 2 threads' w linespoints lt -1, \
     "sort_par_mcstl_std_parallel_quicksort_balanced_scalability.data" u ($2/$4) t 'MCSTL quicksort balanced with 3 threads' w linespoints lt -1, \
     "sort_par_mcstl_std_parallel_quicksort_balanced_scalability.data" u ($2/$5) t 'MCSTL quicksort balanced with 4 threads' w linespoints lt -1
