0
0
0
0
0
0
0
0
0
0
0
0
0
0
0
0
0
0
0
0
0
0
0
0
0
0
26	7.319067749	3.887335103	16.743507991	16.254687811	3.889377920	3.850734368	3.882084010	17.614595463
27	15.311253037	8.004412520	34.150036938	32.827926643	7.954360507	7.885083482	7.955902410	34.426061825
28	31.604431117	16.571827618	70.687363162	67.887523007	16.580339003	16.667590072	16.764645334	71.572155440
29	65.622120906	34.270461427	145.319754995	141.559856102	33.770369546	34.046658020	33.951771853	144.690878739
30	136.300904064	70.302034073	298.096242432	287.048517355	70.081183378	70.406111070	70.836672941	295.404848004
