0
0
0
0
0
0
0
0
0
0
0
0
0
0
0
0
0
0
0
0
0
0
0
0
0
0
26	7.319067749	0.407079432	9.460797694	1.195176897	4.233648356	4.527168881	2.581752599
27	15.311253037	0.822419755	19.877994542	2.509283683	8.956248590	9.692761536	4.545664343
28	31.604431117	1.597119100	40.992128627	6.795396430	20.200489084	20.911512025	8.722584156
29	65.622120906	3.151978917	84.435425860	11.736795401	39.910110353	41.925641513	20.179340809
30	136.300904064	7.049546885	178.723949152	26.028561506	77.485776374	87.571914084	34.711374597
