0
0
0
0
0
0
0
0
0
0
0
0
0
0
0
0
0
0
0
0
0
0
0
0
0
0
26	12.061959481	6.186118285	3.335315043	1.958830124	1.305972972	1.195176897
27	24.772072195	12.683955962	7.009071845	4.031464043	2.689988221	2.509283683
28	51.251913364	26.335971494	14.201572139	8.767054915	7.573165497	6.795396430
29	105.404584993	53.810754851	28.815048156	16.991239195	12.212948692	11.736795401
30	215.189362630	110.951322179	59.333020825	33.053401926	27.658281296	26.028561506
