<?xml version="1.0" encoding="UTF-8" standalone="no"?>
<!-- Created with Inkscape (http://www.inkscape.org/) -->

<svg
   xmlns:dc="http://purl.org/dc/elements/1.1/"
   xmlns:cc="http://creativecommons.org/ns#"
   xmlns:rdf="http://www.w3.org/1999/02/22-rdf-syntax-ns#"
   xmlns:svg="http://www.w3.org/2000/svg"
   xmlns="http://www.w3.org/2000/svg"
   xmlns:sodipodi="http://sodipodi.sourceforge.net/DTD/sodipodi-0.dtd"
   xmlns:inkscape="http://www.inkscape.org/namespaces/inkscape"
   width="1052.3622"
   height="744.09448"
   id="svg2"
   version="1.1"
   inkscape:version="0.47 r22583"
   sodipodi:docname="library_job_sync_step_3.svg">
  <defs
     id="defs4">
    <marker
       inkscape:stockid="Arrow1Lend"
       orient="auto"
       refY="0.0"
       refX="0.0"
       id="Arrow1Lend"
       style="overflow:visible;">
      <path
         id="path4584"
         d="M 0.0,0.0 L 5.0,-5.0 L -12.5,0.0 L 5.0,5.0 L 0.0,0.0 z "
         style="fill-rule:evenodd;stroke:#000000;stroke-width:1.0pt;marker-start:none;"
         transform="scale(0.8) rotate(180) translate(12.5,0)" />
    </marker>
    <inkscape:perspective
       sodipodi:type="inkscape:persp3d"
       inkscape:vp_x="0 : 526.18109 : 1"
       inkscape:vp_y="0 : 1000 : 0"
       inkscape:vp_z="744.09448 : 526.18109 : 1"
       inkscape:persp3d-origin="372.04724 : 350.78739 : 1"
       id="perspective10" />
    <inkscape:perspective
       id="perspective3615"
       inkscape:persp3d-origin="0.5 : 0.33333333 : 1"
       inkscape:vp_z="1 : 0.5 : 1"
       inkscape:vp_y="0 : 1000 : 0"
       inkscape:vp_x="0 : 0.5 : 1"
       sodipodi:type="inkscape:persp3d" />
    <inkscape:perspective
       id="perspective3666"
       inkscape:persp3d-origin="0.5 : 0.33333333 : 1"
       inkscape:vp_z="1 : 0.5 : 1"
       inkscape:vp_y="0 : 1000 : 0"
       inkscape:vp_x="0 : 0.5 : 1"
       sodipodi:type="inkscape:persp3d" />
  </defs>
  <sodipodi:namedview
     id="base"
     pagecolor="#ffffff"
     bordercolor="#666666"
     borderopacity="1.0"
     inkscape:pageopacity="0.0"
     inkscape:pageshadow="2"
     inkscape:zoom="0.81172487"
     inkscape:cx="541.08762"
     inkscape:cy="372.04724"
     inkscape:document-units="px"
     inkscape:current-layer="layer1"
     showgrid="true"
     inkscape:snap-bbox="true"
     inkscape:snap-bbox-midpoints="false"
     inkscape:bbox-nodes="false"
     inkscape:snap-bbox-edge-midpoints="false"
     inkscape:bbox-paths="false"
     inkscape:snap-global="true"
     inkscape:window-width="1440"
     inkscape:window-height="852"
     inkscape:window-x="0"
     inkscape:window-y="0"
     inkscape:window-maximized="1">
    <inkscape:grid
       type="xygrid"
       id="grid2816"
       empspacing="5"
       visible="true"
       enabled="true"
       snapvisiblegridlinesonly="true"
       units="mm"
       spacingx="1mm"
       spacingy="1mm"
       dotted="true" />
  </sodipodi:namedview>
  <metadata
     id="metadata7">
    <rdf:RDF>
      <cc:Work
         rdf:about="">
        <dc:format>image/svg+xml</dc:format>
        <dc:type
           rdf:resource="http://purl.org/dc/dcmitype/StillImage" />
        <dc:title></dc:title>
      </cc:Work>
    </rdf:RDF>
  </metadata>
  <g
     inkscape:label="Layer 1"
     inkscape:groupmode="layer"
     id="layer1"
     transform="translate(0,-308.2677)">
    <path
       transform="translate(408.36614,238.28738)"
       d="m 248.0315,115.15748 c 0,14.67686 -11.89795,26.5748 -26.5748,26.5748 -14.67686,0 -26.57481,-11.89794 -26.57481,-26.5748 0,-14.67686 11.89795,-26.574804 26.57481,-26.574804 14.67685,0 26.5748,11.897944 26.5748,26.574804 z"
       sodipodi:ry="26.574802"
       sodipodi:rx="26.574802"
       sodipodi:cy="115.15748"
       sodipodi:cx="221.4567"
       id="path5423"
       style="fill:#b3b3b3;fill-opacity:1;stroke:#000000;stroke-width:1.77165353;stroke-miterlimit:4;stroke-dasharray:none"
       sodipodi:type="arc" />
    <rect
       style="fill:none;stroke:#000000;stroke-width:1.77165353;stroke-miterlimit:4;stroke-dasharray:none"
       id="rect3621"
       width="53.149605"
       height="53.149605"
       x="797.24408"
       y="733.46454" />
    <rect
       style="fill:none;stroke:#000000;stroke-width:1.77165353;stroke-miterlimit:4;stroke-dasharray:none"
       id="rect3623"
       width="53.149605"
       height="53.149605"
       x="160.33464"
       y="592.6181" />
    <rect
       style="fill:none;stroke:#000000;stroke-width:1.53037798;stroke-miterlimit:4;stroke-dasharray:none"
       id="rect3625"
       width="157.91844"
       height="53.390881"
       x="36.198261"
       y="326.74942" />
    <path
       sodipodi:type="arc"
       style="fill:#000000;stroke:#000000;stroke-width:1.77165353;stroke-miterlimit:4;stroke-dasharray:none"
       id="path3631"
       sodipodi:cx="221.4567"
       sodipodi:cy="115.15748"
       sodipodi:rx="8.8582678"
       sodipodi:ry="8.8582678"
       d="m 230.31496,115.15748 a 8.8582678,8.8582678 0 1 1 -17.71653,0 8.8582678,8.8582678 0 1 1 17.71653,0 z"
       transform="translate(602.36216,644.88189)" />
    <path
       sodipodi:type="arc"
       style="fill:#b3b3b3;fill-opacity:1;stroke:#000000;stroke-width:1.77165353000000003;stroke-miterlimit:4;stroke-dasharray:none"
       id="path3633"
       sodipodi:cx="274.60629"
       sodipodi:cy="115.15748"
       sodipodi:rx="8.8582678"
       sodipodi:ry="8.8582678"
       d="m 283.46456,115.15748 a 8.8582678,8.8582678 0 1 1 -17.71654,0 8.8582678,8.8582678 0 1 1 17.71654,0 z"
       transform="translate(-87.696822,504.03545)" />
    <rect
       style="fill:none;stroke:#000000;stroke-width:1.77165353;stroke-miterlimit:4;stroke-dasharray:none"
       id="rect3637"
       width="425.19684"
       height="53.149605"
       x="601.47638"
       y="326.87006" />
    <path
       transform="translate(390.6496,574.90155)"
       d="m 248.0315,115.15748 a 26.574802,26.574802 0 1 1 -53.14961,0 26.574802,26.574802 0 1 1 53.14961,0 z"
       sodipodi:ry="26.574802"
       sodipodi:rx="26.574802"
       sodipodi:cy="115.15748"
       sodipodi:cx="221.4567"
       id="path4228"
       style="fill:#000000;stroke:#000000;stroke-width:1.77165353000000003;stroke-miterlimit:4;stroke-dasharray:none"
       sodipodi:type="arc" />
    <path
       transform="translate(532.38189,504.03541)"
       d="m 248.0315,115.15748 a 26.574802,26.574802 0 1 1 -53.14961,0 26.574802,26.574802 0 1 1 53.14961,0 z"
       sodipodi:ry="26.574802"
       sodipodi:rx="26.574802"
       sodipodi:cy="115.15748"
       sodipodi:cx="221.4567"
       id="path4230"
       style="fill:#000000;stroke:#000000;stroke-width:1.77165353000000003;stroke-miterlimit:4;stroke-dasharray:none"
       sodipodi:type="arc" />
    <path
       transform="translate(567.81496,716.63384)"
       d="m 248.0315,115.15748 c 0,14.67686 -11.89795,26.5748 -26.5748,26.5748 -14.67686,0 -26.57481,-11.89794 -26.57481,-26.5748 0,-14.67686 11.89795,-26.574804 26.57481,-26.574804 14.67685,0 26.5748,11.897944 26.5748,26.574804 z"
       sodipodi:ry="26.574802"
       sodipodi:rx="26.574802"
       sodipodi:cy="115.15748"
       sodipodi:cx="221.4567"
       id="path4240"
       style="fill:none;stroke:#000000;stroke-width:1.77165353;stroke-miterlimit:4;stroke-dasharray:none"
       sodipodi:type="arc" />
    <path
       sodipodi:type="arc"
       style="fill:none;stroke:#000000;stroke-width:1.77165353;stroke-miterlimit:4;stroke-dasharray:none"
       id="path4242"
       sodipodi:cx="221.4567"
       sodipodi:cy="115.15748"
       sodipodi:rx="26.574802"
       sodipodi:ry="26.574802"
       d="m 248.0315,115.15748 c 0,14.67686 -11.89795,26.5748 -26.5748,26.5748 -14.67686,0 -26.57481,-11.89794 -26.57481,-26.5748 0,-14.67686 11.89795,-26.574804 26.57481,-26.574804 14.67685,0 26.5748,11.897944 26.5748,26.574804 z"
       transform="translate(638.6811,716.63384)" />
    <path
       transform="translate(709.54724,716.63384)"
       d="m 248.0315,115.15748 c 0,14.67686 -11.89795,26.5748 -26.5748,26.5748 -14.67686,0 -26.57481,-11.89794 -26.57481,-26.5748 0,-14.67686 11.89795,-26.574804 26.57481,-26.574804 14.67685,0 26.5748,11.897944 26.5748,26.574804 z"
       sodipodi:ry="26.574802"
       sodipodi:rx="26.574802"
       sodipodi:cy="115.15748"
       sodipodi:cx="221.4567"
       id="path4244"
       style="fill:none;stroke:#000000;stroke-width:1.77165353;stroke-miterlimit:4;stroke-dasharray:none"
       sodipodi:type="arc" />
    <path
       sodipodi:type="arc"
       style="fill:none;stroke:#000000;stroke-width:1.77165353;stroke-miterlimit:4;stroke-dasharray:none"
       id="path4246"
       sodipodi:cx="221.4567"
       sodipodi:cy="115.15748"
       sodipodi:rx="26.574802"
       sodipodi:ry="26.574802"
       d="m 248.0315,115.15748 c 0,14.67686 -11.89795,26.5748 -26.5748,26.5748 -14.67686,0 -26.57481,-11.89794 -26.57481,-26.5748 0,-14.67686 11.89795,-26.574804 26.57481,-26.574804 14.67685,0 26.5748,11.897944 26.5748,26.574804 z"
       transform="translate(780.41339,716.63384)" />
    <path
       sodipodi:type="arc"
       style="fill:none;stroke:#000000;stroke-width:1.77165353;stroke-miterlimit:4;stroke-dasharray:none"
       id="path4248"
       sodipodi:cx="221.4567"
       sodipodi:cy="115.15748"
       sodipodi:rx="26.574802"
       sodipodi:ry="26.574802"
       d="m 248.0315,115.15748 c 0,14.67686 -11.89795,26.5748 -26.5748,26.5748 -14.67686,0 -26.57481,-11.89794 -26.57481,-26.5748 0,-14.67686 11.89795,-26.574804 26.57481,-26.574804 14.67685,0 26.5748,11.897944 26.5748,26.574804 z"
       transform="translate(461.51575,645.7677)" />
    <path
       transform="translate(674.11417,574.90155)"
       d="m 248.0315,115.15748 a 26.574802,26.574802 0 1 1 -53.14961,0 26.574802,26.574802 0 1 1 53.14961,0 z"
       sodipodi:ry="26.574802"
       sodipodi:rx="26.574802"
       sodipodi:cy="115.15748"
       sodipodi:cx="221.4567"
       id="path4250"
       style="fill:#000000;stroke:#000000;stroke-width:1.77165353000000003;stroke-miterlimit:4;stroke-dasharray:none"
       sodipodi:type="arc" />
    <path
       sodipodi:type="arc"
       style="fill:none;stroke:#000000;stroke-width:1.77165353;stroke-miterlimit:4;stroke-dasharray:none"
       id="path4252"
       sodipodi:cx="221.4567"
       sodipodi:cy="115.15748"
       sodipodi:rx="26.574802"
       sodipodi:ry="26.574802"
       d="m 248.0315,115.15748 c 0,14.67686 -11.89795,26.5748 -26.5748,26.5748 -14.67686,0 -26.57481,-11.89794 -26.57481,-26.5748 0,-14.67686 11.89795,-26.574804 26.57481,-26.574804 14.67685,0 26.5748,11.897944 26.5748,26.574804 z"
       transform="translate(744.98031,645.7677)" />
    <path
       transform="translate(248.91732,415.45273)"
       d="m 248.0315,115.15748 c 0,14.67686 -11.89795,26.5748 -26.5748,26.5748 -14.67686,0 -26.57481,-11.89794 -26.57481,-26.5748 0,-14.67686 11.89795,-26.574804 26.57481,-26.574804 14.67685,0 26.5748,11.897944 26.5748,26.574804 z"
       sodipodi:ry="26.574802"
       sodipodi:rx="26.574802"
       sodipodi:cy="115.15748"
       sodipodi:cx="221.4567"
       id="path4254"
       style="fill:#000000;stroke:#000000;stroke-width:1.77165353000000003;stroke-miterlimit:4;stroke-dasharray:none;fill-opacity:1"
       sodipodi:type="arc" />
    <path
       sodipodi:type="arc"
       style="fill:#000000;stroke:#000000;stroke-width:1.77165353;stroke-miterlimit:4;stroke-dasharray:none"
       id="path4293"
       sodipodi:cx="221.4567"
       sodipodi:cy="115.15748"
       sodipodi:rx="26.574802"
       sodipodi:ry="26.574802"
       d="m 248.0315,115.15748 a 26.574802,26.574802 0 1 1 -53.14961,0 26.574802,26.574802 0 1 1 53.14961,0 z"
       transform="translate(107.18504,574.90155)" />
    <path
       sodipodi:type="arc"
       style="fill:#b3b3b3;fill-opacity:1;stroke:#000000;stroke-width:1.77165353;stroke-miterlimit:4;stroke-dasharray:none"
       id="path4317"
       sodipodi:cx="221.4567"
       sodipodi:cy="115.15748"
       sodipodi:rx="26.574802"
       sodipodi:ry="26.574802"
       d="m 248.0315,115.15748 c 0,14.67686 -11.89795,26.5748 -26.5748,26.5748 -14.67686,0 -26.57481,-11.89794 -26.57481,-26.5748 0,-14.67686 11.89795,-26.574804 26.57481,-26.574804 14.67685,0 26.5748,11.897944 26.5748,26.574804 z"
       transform="translate(-176.27953,574.90155)" />
    <path
       style="fill:none;stroke:#000000;stroke-width:1px;stroke-linecap:butt;stroke-linejoin:miter;stroke-opacity:1"
       d="m 814.96063,478.34645 -17.71654,17.71654"
       id="path4321"
       transform="translate(0,308.2677)" />
    <path
       style="fill:none;stroke:#000000;stroke-width:1px;stroke-linecap:butt;stroke-linejoin:miter;stroke-opacity:1"
       d="m 956.69291,478.34645 -17.71653,17.71654"
       id="path4325"
       transform="translate(0,308.2677)" />
    <path
       style="fill:none;stroke:#000000;stroke-width:1px;stroke-linecap:butt;stroke-linejoin:miter;stroke-opacity:1"
       d="m 974.40945,478.34645 17.71653,17.71654"
       id="path4327"
       transform="translate(0,308.2677)" />
    <path
       style="fill:none;stroke:#000000;stroke-width:1px;stroke-linecap:butt;stroke-linejoin:miter;stroke-opacity:1"
       d="m 885.82677,407.48031 -53.1496,17.71653"
       id="path4329"
       transform="translate(0,308.2677)" />
    <path
       style="fill:none;stroke:#000000;stroke-width:1px;stroke-linecap:butt;stroke-linejoin:miter;stroke-opacity:1"
       d="m 903.54331,407.48031 53.1496,17.71653"
       id="path4331"
       transform="translate(0,308.2677)" />
    <path
       style="fill:none;stroke:#000000;stroke-width:1px;stroke-linecap:butt;stroke-linejoin:miter;stroke-opacity:1"
       d="m 620.07874,407.48031 53.14961,17.71653"
       id="path4333"
       transform="translate(0,308.2677)" />
    <path
       style="fill:none;stroke:#000000;stroke-width:1px;stroke-linecap:butt;stroke-linejoin:miter;stroke-opacity:1"
       d="m 602.3622,407.48031 -53.1496,17.71653"
       id="path4335"
       transform="translate(0,308.2677)" />
    <path
       style="fill:none;stroke:#000000;stroke-width:1px;stroke-linecap:butt;stroke-linejoin:miter;stroke-opacity:1"
       d="M 744.09449,336.61417 620.07874,354.3307"
       id="path4337"
       transform="translate(0,308.2677)" />
    <path
       style="fill:none;stroke:#000000;stroke-width:1px;stroke-linecap:butt;stroke-linejoin:miter;stroke-opacity:1"
       d="M 761.81102,336.61417 885.82677,354.3307"
       id="path4339"
       transform="translate(0,308.2677)" />
    <path
       style="fill:none;stroke:#000000;stroke-width:1px;stroke-linecap:butt;stroke-linejoin:miter;stroke-opacity:1"
       d="M 194.88189,336.61417 318.89764,354.3307"
       id="path4341"
       transform="translate(0,308.2677)" />
    <path
       style="fill:none;stroke:#000000;stroke-width:1px;stroke-linecap:butt;stroke-linejoin:miter;stroke-opacity:1"
       d="M 177.16535,336.61417 53.149606,354.3307"
       id="path4343"
       transform="translate(0,308.2677)" />
    <path
       style="fill:none;stroke:#000000;stroke-width:1px;stroke-linecap:butt;stroke-linejoin:miter;stroke-opacity:1"
       d="M 460.62992,248.03149 194.88189,283.46456"
       id="path4345"
       transform="translate(0,308.2677)" />
    <path
       style="fill:none;stroke:#000000;stroke-width:1px;stroke-linecap:butt;stroke-linejoin:miter;stroke-opacity:1"
       d="m 478.34646,248.03149 265.74803,35.43307"
       id="path4347"
       transform="translate(0,308.2677)" />
    <rect
       y="733.46454"
       x="513.77954"
       height="53.149605"
       width="53.149605"
       id="rect5343"
       style="fill:none;stroke:#000000;stroke-width:1.77165353;stroke-miterlimit:4;stroke-dasharray:none" />
    <path
       transform="translate(318.89763,644.88189)"
       d="m 230.31496,115.15748 a 8.8582678,8.8582678 0 1 1 -17.71653,0 8.8582678,8.8582678 0 1 1 17.71653,0 z"
       sodipodi:ry="8.8582678"
       sodipodi:rx="8.8582678"
       sodipodi:cy="115.15748"
       sodipodi:cx="221.4567"
       id="path5345"
       style="fill:#000000;stroke:#000000;stroke-width:1.77165353;stroke-miterlimit:4;stroke-dasharray:none"
       sodipodi:type="arc" />
    <path
       style="fill:none;stroke:#000000;stroke-width:1px;stroke-linecap:butt;stroke-linejoin:miter;stroke-opacity:1;marker-end:url(#Arrow1Lend)"
       d="m 194.64723,337.5528 c 0,0 35.66773,105.36058 -123.781088,52.21097"
       id="path5906"
       transform="translate(0,308.2677)" />
    <path
       style="fill:none;stroke:#000000;stroke-width:1px;stroke-linecap:butt;stroke-linejoin:miter;stroke-opacity:1;marker-end:url(#Arrow1Lend)"
       d="m 620.07874,70.866136 c 0,0 -584.645669,141.732284 -584.645669,283.464564"
       id="path6092"
       transform="translate(0,308.2677)" />
    <path
       id="path6278"
       d="m 832.67717,786.61415 17.71653,17.71654"
       style="fill:none;stroke:#000000;stroke-width:1px;stroke-linecap:butt;stroke-linejoin:miter;stroke-opacity:1" />
    <path
       style="fill:none;stroke:#000000;stroke-width:1px;stroke-linecap:butt;stroke-linejoin:miter;stroke-opacity:1;marker-end:url(#Arrow1Lend)"
       d="m 566.92913,442.91338 c 0,0 0,53.14961 88.58268,17.71654"
       id="path6388"
       transform="translate(0,308.2677)" />
    <path
       style="fill:none;stroke:#000000;stroke-width:1px;stroke-linecap:butt;stroke-linejoin:miter;stroke-opacity:1;marker-end:url(#Arrow1Lend)"
       d="m 797.24409,442.91338 c 0,0 -70.86614,-35.43307 -17.71653,53.14961"
       id="path6574"
       transform="translate(0,308.2677)" />
  </g>
</svg>
