0
0
0
0
0
0
0
0
0
0
0
0
0
0
0
0
0
0
0
0
0
0
0
0
0
0
26	7.190408919	1.462486934	15.637677806	4.389948969	1.493564930	1.506503787	1.464738420	6.865779734
27	14.953976214	3.131944290	32.059752434	9.106172355	3.193123844	3.796415339	3.162529555	10.878462925
28	31.088783315	6.848109253	66.251553959	18.658435962	6.774459652	6.717658404	6.844016850	22.785442899
29	64.545797363	14.191871705	136.063146879	38.056506961	14.759138234	14.043028058	14.765148661	41.845594045
30	133.066762454	32.981815357	279.923415080	77.760783160	31.250968068	30.297858093	30.676461116	103.129397048
