set xlabel "2 to the power of n vertices with a max vertex degree of 2 to the power of n/2"
set ylabel "time in seconds"
set xr [0:13]
set yr [0:13]

plot \
     "time.data" u ($7) t 'Prim MST sequential ' w linespoints lt -1, \
     "time.data" u ($5) t 'Kruskal sequential' w linespoints lt -1, \
     "time.data" u ($6) t 'Kruskal-filter sequential' w linespoints lt -1, \
     "time.data" u ($4) t 'Kruskal parallel (MCSTL mergesort) with 4 threads' w linespoints lt -1
