\beamer@endinputifotherversion {3.01pt}
\headcommand {\slideentry {0}{0}{1}{1/1}{}{0}}
\headcommand {\beamer@framepages {1}{1}}
\headcommand {\slideentry {0}{0}{2}{2/2}{}{0}}
\headcommand {\beamer@framepages {2}{2}}
\headcommand {\sectionentry {1}{Introduction}{3}{Introduction}{0}}
\headcommand {\beamer@sectionpages {1}{2}}
\headcommand {\beamer@subsectionpages {1}{2}}
\headcommand {\slideentry {1}{0}{3}{3/3}{}{0}}
\headcommand {\beamer@framepages {3}{3}}
\headcommand {\sectionentry {2}{Methodology}{4}{Methodology}{0}}
\headcommand {\beamer@sectionpages {3}{3}}
\headcommand {\beamer@subsectionpages {3}{3}}
\headcommand {\slideentry {2}{0}{4}{4/4}{}{0}}
\headcommand {\beamer@framepages {4}{4}}
\headcommand {\slideentry {2}{0}{5}{5/5}{}{0}}
\headcommand {\beamer@framepages {5}{5}}
\headcommand {\slideentry {2}{0}{6}{6/6}{}{0}}
\headcommand {\beamer@framepages {6}{6}}
\headcommand {\slideentry {2}{0}{7}{7/7}{}{0}}
\headcommand {\beamer@framepages {7}{7}}
\headcommand {\slideentry {2}{0}{8}{8/8}{}{0}}
\headcommand {\beamer@framepages {8}{8}}
\headcommand {\slideentry {2}{0}{9}{9/9}{}{0}}
\headcommand {\beamer@framepages {9}{9}}
\headcommand {\slideentry {2}{0}{10}{10/10}{}{0}}
\headcommand {\beamer@framepages {10}{10}}
\headcommand {\slideentry {2}{0}{11}{11/11}{}{0}}
\headcommand {\beamer@framepages {11}{11}}
\headcommand {\slideentry {2}{0}{12}{12/12}{}{0}}
\headcommand {\beamer@framepages {12}{12}}
\headcommand {\slideentry {2}{0}{13}{13/13}{}{0}}
\headcommand {\beamer@framepages {13}{13}}
\headcommand {\slideentry {2}{0}{14}{14/14}{}{0}}
\headcommand {\beamer@framepages {14}{14}}
\headcommand {\slideentry {2}{0}{15}{15/15}{}{0}}
\headcommand {\beamer@framepages {15}{15}}
\headcommand {\slideentry {2}{0}{16}{16/16}{}{0}}
\headcommand {\beamer@framepages {16}{16}}
\headcommand {\slideentry {2}{0}{17}{17/17}{}{0}}
\headcommand {\beamer@framepages {17}{17}}
\headcommand {\slideentry {2}{0}{18}{18/18}{}{0}}
\headcommand {\beamer@framepages {18}{18}}
\headcommand {\slideentry {2}{0}{19}{19/19}{}{0}}
\headcommand {\beamer@framepages {19}{19}}
\headcommand {\slideentry {2}{0}{20}{20/20}{}{0}}
\headcommand {\beamer@framepages {20}{20}}
\headcommand {\slideentry {2}{0}{21}{21/21}{}{0}}
\headcommand {\beamer@framepages {21}{21}}
\headcommand {\sectionentry {3}{Existing frameworks and libraries}{22}{Existing frameworks and libraries}{0}}
\headcommand {\beamer@sectionpages {4}{21}}
\headcommand {\beamer@subsectionpages {4}{21}}
\headcommand {\slideentry {3}{0}{22}{22/22}{}{0}}
\headcommand {\beamer@framepages {22}{22}}
\headcommand {\slideentry {3}{0}{23}{23/23}{}{0}}
\headcommand {\beamer@framepages {23}{23}}
\headcommand {\slideentry {3}{0}{24}{24/24}{}{0}}
\headcommand {\beamer@framepages {24}{24}}
\headcommand {\slideentry {3}{0}{25}{25/25}{}{0}}
\headcommand {\beamer@framepages {25}{25}}
\headcommand {\slideentry {3}{0}{26}{26/26}{}{0}}
\headcommand {\beamer@framepages {26}{26}}
\headcommand {\slideentry {3}{0}{27}{27/27}{}{0}}
\headcommand {\beamer@framepages {27}{27}}
\headcommand {\slideentry {3}{0}{28}{28/28}{}{0}}
\headcommand {\beamer@framepages {28}{28}}
\headcommand {\slideentry {3}{0}{29}{29/29}{}{0}}
\headcommand {\beamer@framepages {29}{29}}
\headcommand {\slideentry {3}{0}{30}{30/30}{}{0}}
\headcommand {\beamer@framepages {30}{30}}
\headcommand {\slideentry {3}{0}{31}{31/31}{}{0}}
\headcommand {\beamer@framepages {31}{31}}
\headcommand {\slideentry {3}{0}{32}{32/32}{}{0}}
\headcommand {\beamer@framepages {32}{32}}
\headcommand {\slideentry {3}{0}{33}{33/33}{}{0}}
\headcommand {\beamer@framepages {33}{33}}
\headcommand {\slideentry {3}{0}{34}{34/34}{}{0}}
\headcommand {\beamer@framepages {34}{34}}
\headcommand {\slideentry {3}{0}{35}{35/35}{}{0}}
\headcommand {\beamer@framepages {35}{35}}
\headcommand {\slideentry {3}{0}{36}{36/36}{}{0}}
\headcommand {\beamer@framepages {36}{36}}
\headcommand {\slideentry {3}{0}{37}{37/37}{}{0}}
\headcommand {\beamer@framepages {37}{37}}
\headcommand {\slideentry {3}{0}{38}{38/38}{}{0}}
\headcommand {\beamer@framepages {38}{38}}
\headcommand {\sectionentry {4}{Efficient Algorithm and Data structures framework for C++}{39}{Efficient Algorithm and Data structures framework for C++}{0}}
\headcommand {\beamer@sectionpages {22}{38}}
\headcommand {\beamer@subsectionpages {22}{38}}
\headcommand {\slideentry {4}{0}{39}{39/39}{}{0}}
\headcommand {\beamer@framepages {39}{39}}
\headcommand {\slideentry {4}{0}{40}{40/40}{}{0}}
\headcommand {\beamer@framepages {40}{40}}
\headcommand {\slideentry {4}{0}{41}{41/41}{}{0}}
\headcommand {\beamer@framepages {41}{41}}
\headcommand {\slideentry {4}{0}{42}{42/42}{}{0}}
\headcommand {\beamer@framepages {42}{42}}
\headcommand {\slideentry {4}{0}{43}{43/43}{}{0}}
\headcommand {\beamer@framepages {43}{43}}
\headcommand {\sectionentry {5}{Sorting in parallel}{44}{Sorting in parallel}{0}}
\headcommand {\beamer@sectionpages {39}{43}}
\headcommand {\beamer@subsectionpages {39}{43}}
\headcommand {\slideentry {5}{0}{44}{44/44}{}{0}}
\headcommand {\beamer@framepages {44}{44}}
\headcommand {\slideentry {5}{0}{45}{45/45}{}{0}}
\headcommand {\beamer@framepages {45}{45}}
\headcommand {\slideentry {5}{0}{46}{46/46}{}{0}}
\headcommand {\beamer@framepages {46}{46}}
\headcommand {\slideentry {5}{0}{47}{47/47}{}{0}}
\headcommand {\beamer@framepages {47}{47}}
\headcommand {\slideentry {5}{0}{48}{48/48}{}{0}}
\headcommand {\beamer@framepages {48}{48}}
\headcommand {\slideentry {5}{0}{49}{49/49}{}{0}}
\headcommand {\beamer@framepages {49}{49}}
\headcommand {\slideentry {5}{0}{50}{50/50}{}{0}}
\headcommand {\beamer@framepages {50}{50}}
\headcommand {\slideentry {5}{0}{51}{51/51}{}{0}}
\headcommand {\beamer@framepages {51}{51}}
\headcommand {\slideentry {5}{0}{52}{52/52}{}{0}}
\headcommand {\beamer@framepages {52}{52}}
\headcommand {\slideentry {5}{0}{53}{53/53}{}{0}}
\headcommand {\beamer@framepages {53}{53}}
\headcommand {\sectionentry {6}{Results}{54}{Results}{0}}
\headcommand {\beamer@sectionpages {44}{53}}
\headcommand {\beamer@subsectionpages {44}{53}}
\headcommand {\slideentry {6}{0}{54}{54/54}{}{0}}
\headcommand {\beamer@framepages {54}{54}}
\headcommand {\slideentry {6}{0}{55}{55/55}{}{0}}
\headcommand {\beamer@framepages {55}{55}}
\headcommand {\slideentry {6}{0}{56}{56/56}{}{0}}
\headcommand {\beamer@framepages {56}{56}}
\headcommand {\slideentry {6}{0}{57}{57/57}{}{0}}
\headcommand {\beamer@framepages {57}{57}}
\headcommand {\sectionentry {7}{Conclusion}{58}{Conclusion}{0}}
\headcommand {\beamer@sectionpages {54}{57}}
\headcommand {\beamer@subsectionpages {54}{57}}
\headcommand {\slideentry {7}{0}{58}{58/58}{}{0}}
\headcommand {\beamer@framepages {58}{58}}
\headcommand {\sectionentry {8}{Questions}{59}{Questions}{0}}
\headcommand {\beamer@sectionpages {58}{58}}
\headcommand {\beamer@subsectionpages {58}{58}}
\headcommand {\slideentry {8}{0}{59}{59/59}{}{0}}
\headcommand {\beamer@framepages {59}{59}}
\headcommand {\beamer@partpages {1}{59}}
\headcommand {\beamer@subsectionpages {59}{59}}
\headcommand {\beamer@sectionpages {59}{59}}
\headcommand {\beamer@documentpages {59}}
\headcommand {\def \inserttotalframenumber {117}}
